{
  "header": {
    "label": {
      "long": "Vitali Rapalis",
      "short": "VR"
    },
    "nav": {
      "home": "HOME",
      "cv": "LEBENSLAUF",
      "blog": "BLOG",
      "contact": "KONTAKT"
    }
  },
  "footer": {}
}
