{
  "name": "data-access",
  "$schema": "../../node_modules/nx/schemas/project-schema.json",
  "sourceRoot": "libs/data-access/src",
  "prefix": "website",
  "tags": ["scope:main", "type:data-access"],
  "projectType": "library",
  "targets": {
    "test": {
      "executor": "@nx/jest:jest",
      "outputs": ["{workspaceRoot}/coverage/{projectRoot}"],
      "options": {
        "jestConfig": "libs/data-access/jest.config.ts"
      }
    },
    "lint": {
      "executor": "@nx/eslint:lint",
      "outputs": ["{options.outputFile}"]
    }
  }
}
