{
  "name": "utility",
  "$schema": "../../node_modules/nx/schemas/project-schema.json",
  "sourceRoot": "libs/utility/src",
  "prefix": "website",
  "tags": ["scope:main", "type:utility"],
  "projectType": "library",
  "targets": {
    "test": {
      "executor": "@nx/jest:jest",
      "outputs": ["{workspaceRoot}/coverage/{projectRoot}"],
      "options": {
        "jestConfig": "libs/utility/jest.config.ts"
      }
    },
    "lint": {
      "executor": "@nx/eslint:lint",
      "outputs": ["{options.outputFile}"]
    }
  }
}
